8,4,2,6,0,0,0,1,0;5,5,5,5
8,5,4,3,0,0,0,1,0;5,5,5,5
3,3,7,7,0,0,0,1,0;5,5,5,5
0,8,5,7,0,0,0,1,0;5,5,5,5
1,6,5,8,0,0,0,1,0;5,5,5,5
0,8,8,4,0,0,0,1,0;5,5,5,5
8,8,2,2,0,0,0,1,0;5,5,5,5
7,4,7,2,0,0,0,1,0;5,5,5,5
5,0,7,8,0,0,0,1,0;5,5,5,5
8,3,5,4,0,0,0,1,0;5,5,5,5
3,1,8,8,0,0,0,1,0;5,5,5,5
3,3,6,8,0,0,0,1,0;5,5,5,5
2,8,2,8,0,0,0,1,0;5,5,5,5
5,4,6,5,0,0,0,1,0;5,5,5,5
5,5,3,7,0,0,0,1,0;5,5,5,5
8,2,4,6,0,0,0,1,0;5,5,5,5
7,7,4,2,0,0,0,1,0;5,5,5,5
7,3,3,7,0,0,0,1,0;5,5,5,5
4,5,7,4,0,0,0,1,0;5,5,5,5
8,0,4,8,0,0,0,1,0;5,5,5,5
3,5,4,8,0,0,0,1,0;5,5,5,5
5,4,4,7,0,0,0,1,0;5,5,5,5
6,3,5,6,0,0,0,1,0;5,5,5,5
7,4,3,6,0,0,0,1,0;5,5,5,5
0,6,7,7,0,0,0,1,0;5,5,5,5
6,7,5,2,0,0,0,1,0;5,5,5,5
8,5,4,3,0,0,0,1,0;5,5,5,5
7,5,0,8,0,0,0,1,0;5,5,5,5
2,8,2,8,0,0,0,1,0;5,5,5,5
3,6,5,6,0,0,0,1,0;5,5,5,5
3,8,1,8,0,0,0,1,0;5,5,5,5
5,8,0,7,0,0,0,1,0;5,5,5,5
7,5,0,8,0,0,0,1,0;5,5,5,5
4,7,5,4,0,0,0,1,0;5,5,5,5
6,7,1,6,0,0,0,1,0;5,5,5,5
6,4,2,8,0,0,0,1,0;5,5,5,5
7,5,4,4,0,0,0,1,0;5,5,5,5
7,1,5,7,0,0,0,1,0;5,5,5,5
7,4,7,2,0,0,0,1,0;5,5,5,5
8,6,1,5,0,0,0,1,0;5,5,5,5
4,6,2,8,0,0,0,1,0;5,5,5,5
1,6,5,8,0,0,0,1,0;5,5,5,5
7,3,7,3,0,0,0,1,0;5,5,5,5
7,0,6,7,0,0,0,1,0;5,5,5,5
7,1,7,5,0,0,0,1,0;5,5,5,5
7,5,1,7,0,0,0,1,0;5,5,5,5
4,7,3,6,0,0,0,1,0;5,5,5,5
5,1,6,8,0,0,0,1,0;5,5,5,5
8,3,2,7,0,0,0,1,0;5,5,5,5
6,4,3,7,0,0,0,1,0;5,5,5,5
8,4,0,8,0,0,0,1,0;5,5,5,5
5,4,3,8,0,0,0,1,0;5,5,5,5
4,6,4,6,0,0,0,1,0;5,5,5,5
7,0,6,7,0,0,0,1,0;5,5,5,5
8,0,8,4,0,0,0,1,0;5,5,5,5
6,5,4,5,0,0,0,1,0;5,5,5,5
6,4,4,6,0,0,0,1,0;5,5,5,5
4,5,7,4,0,0,0,1,0;5,5,5,5
5,5,4,6,0,0,0,1,0;5,5,5,5
7,6,1,6,0,0,0,1,0;5,5,5,5
6,8,3,3,0,0,0,1,0;5,5,5,5
8,7,0,5,0,0,0,1,0;5,5,5,5
